^E:\UNIVERSITY\AN4\SRF\PROIECT\OPENCVAPPLICATION-VS2013_2413_BASIC\STDAFX.CPP
/c /IOpenCV/Include /ZI /nologo /W3 /WX- /sdl /Od /Oy- /D WIN32 /D _DEBUG /D _CONSOLE /D _CRT_SECURE_NO_WARNINGS /D _MBCS /Gm /EHsc /RTC1 /MDd /GS /Zc:wchar_t /Zc:forScope /Yc"stdafx.h" /Fp"DEBUG\OPENCVAPPLICATION.PCH" /Fo"DEBUG\\" /Fd"DEBUG\VC120.PDB" /Gd /TP /analyze- E:\UNIVERSITY\AN4\SRF\PROIECT\OPENCVAPPLICATION-VS2013_2413_BASIC\STDAFX.CPP
^E:\UNIVERSITY\AN4\SRF\PROIECT\OPENCVAPPLICATION-VS2013_2413_BASIC\COMMON.CPP
/c /IOpenCV/Include /ZI /nologo /W3 /WX- /sdl /Od /Oy- /D WIN32 /D _DEBUG /D _CONSOLE /D _CRT_SECURE_NO_WARNINGS /D _MBCS /Gm /EHsc /RTC1 /MDd /GS /Zc:wchar_t /Zc:forScope /Yu"stdafx.h" /Fp"DEBUG\OPENCVAPPLICATION.PCH" /Fo"DEBUG\\" /Fd"DEBUG\VC120.PDB" /Gd /TP /analyze- E:\UNIVERSITY\AN4\SRF\PROIECT\OPENCVAPPLICATION-VS2013_2413_BASIC\COMMON.CPP
^E:\UNIVERSITY\AN4\SRF\PROIECT\OPENCVAPPLICATION-VS2013_2413_BASIC\OPENCVAPPLICATION.CPP
/c /IOpenCV/Include /ZI /nologo /W3 /WX- /sdl /Od /Oy- /D WIN32 /D _DEBUG /D _CONSOLE /D _CRT_SECURE_NO_WARNINGS /D _MBCS /Gm /EHsc /RTC1 /MDd /GS /Zc:wchar_t /Zc:forScope /Yu"stdafx.h" /Fp"DEBUG\OPENCVAPPLICATION.PCH" /Fo"DEBUG\\" /Fd"DEBUG\VC120.PDB" /Gd /TP /analyze- E:\UNIVERSITY\AN4\SRF\PROIECT\OPENCVAPPLICATION-VS2013_2413_BASIC\OPENCVAPPLICATION.CPP
