^E:\UNIVERSITY\AN4\SRF\PROIECT\OPENCVAPPLICATION-VS2013_2413_BASIC\DEBUG\COMMON.OBJ|E:\UNIVERSITY\AN4\SRF\PROIECT\OPENCVAPPLICATION-VS2013_2413_BASIC\DEBUG\OPENCVAPPLICATION.OBJ|E:\UNIVERSITY\AN4\SRF\PROIECT\OPENCVAPPLICATION-VS2013_2413_BASIC\DEBUG\STDAFX.OBJ
E:\UNIVERSITY\AN4\SRF\PROIECT\OPENCVAPPLICATION-VS2013_2413_BASIC\OPENCV\LIB\OPENCV_CALIB3D2413D.LIB
E:\UNIVERSITY\AN4\SRF\PROIECT\OPENCVAPPLICATION-VS2013_2413_BASIC\OPENCV\LIB\OPENCV_CONTRIB2413D.LIB
E:\UNIVERSITY\AN4\SRF\PROIECT\OPENCVAPPLICATION-VS2013_2413_BASIC\OPENCV\LIB\OPENCV_CORE2413D.LIB
E:\UNIVERSITY\AN4\SRF\PROIECT\OPENCVAPPLICATION-VS2013_2413_BASIC\OPENCV\LIB\OPENCV_FEATURES2D2413D.LIB
E:\UNIVERSITY\AN4\SRF\PROIECT\OPENCVAPPLICATION-VS2013_2413_BASIC\OPENCV\LIB\OPENCV_FLANN2413D.LIB
E:\UNIVERSITY\AN4\SRF\PROIECT\OPENCVAPPLICATION-VS2013_2413_BASIC\OPENCV\LIB\OPENCV_GPU2413D.LIB
E:\UNIVERSITY\AN4\SRF\PROIECT\OPENCVAPPLICATION-VS2013_2413_BASIC\OPENCV\LIB\OPENCV_HIGHGUI2413D.LIB
E:\UNIVERSITY\AN4\SRF\PROIECT\OPENCVAPPLICATION-VS2013_2413_BASIC\OPENCV\LIB\OPENCV_IMGPROC2413D.LIB
E:\UNIVERSITY\AN4\SRF\PROIECT\OPENCVAPPLICATION-VS2013_2413_BASIC\OPENCV\LIB\OPENCV_LEGACY2413D.LIB
E:\UNIVERSITY\AN4\SRF\PROIECT\OPENCVAPPLICATION-VS2013_2413_BASIC\OPENCV\LIB\OPENCV_ML2413D.LIB
E:\UNIVERSITY\AN4\SRF\PROIECT\OPENCVAPPLICATION-VS2013_2413_BASIC\OPENCV\LIB\OPENCV_NONFREE2413D.LIB
E:\UNIVERSITY\AN4\SRF\PROIECT\OPENCVAPPLICATION-VS2013_2413_BASIC\OPENCV\LIB\OPENCV_OBJDETECT2413D.LIB
E:\UNIVERSITY\AN4\SRF\PROIECT\OPENCVAPPLICATION-VS2013_2413_BASIC\OPENCV\LIB\OPENCV_OCL2413D.LIB
E:\UNIVERSITY\AN4\SRF\PROIECT\OPENCVAPPLICATION-VS2013_2413_BASIC\OPENCV\LIB\OPENCV_PHOTO2413D.LIB
E:\UNIVERSITY\AN4\SRF\PROIECT\OPENCVAPPLICATION-VS2013_2413_BASIC\OPENCV\LIB\OPENCV_STITCHING2413D.LIB
E:\UNIVERSITY\AN4\SRF\PROIECT\OPENCVAPPLICATION-VS2013_2413_BASIC\OPENCV\LIB\OPENCV_SUPERRES2413D.LIB
E:\UNIVERSITY\AN4\SRF\PROIECT\OPENCVAPPLICATION-VS2013_2413_BASIC\OPENCV\LIB\OPENCV_TS2413D.LIB
E:\UNIVERSITY\AN4\SRF\PROIECT\OPENCVAPPLICATION-VS2013_2413_BASIC\OPENCV\LIB\OPENCV_VIDEO2413D.LIB
E:\UNIVERSITY\AN4\SRF\PROIECT\OPENCVAPPLICATION-VS2013_2413_BASIC\OPENCV\LIB\OPENCV_VIDEOSTAB2413D.LIB
C:\PROGRAM FILES (X86)\WINDOWS KITS\8.1\LIB\WINV6.3\UM\X86\KERNEL32.LIB
C:\PROGRAM FILES (X86)\WINDOWS KITS\8.1\LIB\WINV6.3\UM\X86\USER32.LIB
C:\PROGRAM FILES (X86)\WINDOWS KITS\8.1\LIB\WINV6.3\UM\X86\GDI32.LIB
C:\PROGRAM FILES (X86)\WINDOWS KITS\8.1\LIB\WINV6.3\UM\X86\WINSPOOL.LIB
C:\PROGRAM FILES (X86)\WINDOWS KITS\8.1\LIB\WINV6.3\UM\X86\COMDLG32.LIB
C:\PROGRAM FILES (X86)\WINDOWS KITS\8.1\LIB\WINV6.3\UM\X86\ADVAPI32.LIB
C:\PROGRAM FILES (X86)\WINDOWS KITS\8.1\LIB\WINV6.3\UM\X86\SHELL32.LIB
C:\PROGRAM FILES (X86)\WINDOWS KITS\8.1\LIB\WINV6.3\UM\X86\OLE32.LIB
C:\PROGRAM FILES (X86)\WINDOWS KITS\8.1\LIB\WINV6.3\UM\X86\OLEAUT32.LIB
C:\PROGRAM FILES (X86)\WINDOWS KITS\8.1\LIB\WINV6.3\UM\X86\UUID.LIB
C:\PROGRAM FILES (X86)\WINDOWS KITS\8.1\LIB\WINV6.3\UM\X86\ODBC32.LIB
C:\PROGRAM FILES (X86)\WINDOWS KITS\8.1\LIB\WINV6.3\UM\X86\ODBCCP32.LIB
E:\UNIVERSITY\AN4\SRF\PROIECT\OPENCVAPPLICATION-VS2013_2413_BASIC\DEBUG\COMMON.OBJ
E:\UNIVERSITY\AN4\SRF\PROIECT\OPENCVAPPLICATION-VS2013_2413_BASIC\DEBUG\OPENCVAPPLICATION.OBJ
E:\UNIVERSITY\AN4\SRF\PROIECT\OPENCVAPPLICATION-VS2013_2413_BASIC\DEBUG\STDAFX.OBJ
C:\WINDOWS\GLOBALIZATION\SORTING\SORTDEFAULT.NLS
E:\PROGRAMS\VISUAL STUDIO\VC\LIB\MSVCPRTD.LIB
E:\PROGRAMS\VISUAL STUDIO\VC\LIB\MSVCRTD.LIB
E:\PROGRAMS\VISUAL STUDIO\VC\LIB\OLDNAMES.LIB
C:\PROGRAM FILES (X86)\WINDOWS KITS\8.1\BIN\X86\RC.EXE
E:\PROGRAMS\VISUAL STUDIO\VC\BIN\CVTRES.EXE
C:\WINDOWS\SYSTEM32\TZRES.DLL
